<svg xmlns="http://www.w3.org/2000/svg" width="135" height="135" viewBox="0 0 135 135">
  <defs>
    <style>
      .cls-1 {
        fill: #fff;
      }

      .cls-2 {
        fill: #9c7b52;
      }
    </style>
  </defs>
  <g id="Group_2940" data-name="Group 2940" transform="translate(-10951 -4813)">
    <circle id="Ellipse_4" data-name="Ellipse 4" class="cls-1" cx="67.5" cy="67.5" r="67.5" transform="translate(10951 4813)"/>
    <g id="cinema" transform="translate(10988.031 3837.169)">
      <g id="Group_2939" data-name="Group 2939" transform="translate(3.969 1023.362)">
        <path id="Path_24651" data-name="Path 24651" class="cls-2" d="M8.535,7a4.577,4.577,0,0,0-4.567,4.567V42.621a4.577,4.577,0,0,0,4.567,4.567h1.655c.058.013.111.057.171.057s.12-.047.171-.057h6.393c.058.013.111.057.171.057s.12-.047.171-.057h6.336c.058.013.111.057.171.057a1.1,1.1,0,0,0,.228-.057h6.279c.058.013.111.057.171.057s.12-.047.171-.057h6.393c.058.013.111.057.171.057s.12-.047.171-.057H43.7c.058.013.111.057.171.057a1.1,1.1,0,0,0,.228-.057h6.279c.058.013.111.057.171.057s.12-.047.171-.057h1.656a4.577,4.577,0,0,0,4.567-4.567V39.995c.013-.058.057-.111.057-.171s-.044-.113-.057-.171V11.567A4.577,4.577,0,0,0,52.376,7Zm0,1.827h.913v5.48H5.8v-2.74A2.714,2.714,0,0,1,8.535,8.827Zm2.74,0h4.909v5.48H11.276Zm6.736,0h4.852v5.48H18.012Zm6.679,0h4.852v5.48H24.69Zm6.679,0h4.909v5.48H31.369Zm6.736,0h4.852v5.48H38.105Zm6.679,0h4.852v5.48H44.784Zm6.679,0h.913a2.714,2.714,0,0,1,2.74,2.74v2.74H51.463ZM5.8,16.133h4.4c.058.013.111.057.171.057s.12-.047.171-.057h6.393c.058.013.111.057.171.057s.12-.047.171-.057h6.336c.058.013.111.057.171.057a1.1,1.1,0,0,0,.228-.057h6.279c.058.013.111.057.171.057s.12-.047.171-.057h6.393c.058.013.111.057.171.057s.12-.047.171-.057H43.7c.058.013.111.057.171.057a1.1,1.1,0,0,0,.228-.057h6.279c.058.013.111.057.171.057s.12-.047.171-.057h4.4V38.91H5.8Zm20.95,3.653a.948.948,0,0,0-.628.913V33.487a.973.973,0,0,0,.462.857.81.81,0,0,0,.908-.057l10.1-6.393A.966.966,0,0,0,38,27.2a1.012,1.012,0,0,0-.242-.787.875.875,0,0,0-.228-.171L27.43,19.9a.809.809,0,0,0-.685-.114Zm1.142,2.569,7.478,4.681-7.478,4.8ZM5.8,40.737H9.449v4.624H8.535a2.714,2.714,0,0,1-2.74-2.74Zm5.48,0h4.909v4.624H11.276Zm6.736,0h4.852v4.624H18.012Zm6.679,0h4.852v4.624H24.69Zm6.679,0h4.909v4.624H31.369Zm6.736,0h4.852v4.624H38.105Zm6.679,0h4.852v4.624H44.784Zm6.679,0h3.653v1.884a2.714,2.714,0,0,1-2.74,2.74h-.913Z" transform="translate(-3.969 -7)"/>
      </g>
    </g>
  </g>
</svg>
