<svg xmlns="http://www.w3.org/2000/svg" width="135" height="135" viewBox="0 0 135 135">
  <defs>
    <style>
      .cls-1 {
        fill: #fff;
      }

      .cls-2 {
        fill: #9c7b52;
      }
    </style>
  </defs>
  <g id="Group_2946" data-name="Group 2946" transform="translate(-7160 -7431)">
    <circle id="Ellipse_4" data-name="Ellipse 4" class="cls-1" cx="67.5" cy="67.5" r="67.5" transform="translate(7160 7431)"/>
    <path id="beach-deck" class="cls-2" d="M72,50.744a3.5,3.5,0,0,0-1.463-2.837,2.889,2.889,0,0,0,.294-1.254A2.925,2.925,0,0,0,67.9,43.73H38.1V24.23a13.977,13.977,0,0,0,4.55.245,9.81,9.81,0,0,0,2.384-.547,11.608,11.608,0,0,0,3.984.634,12.2,12.2,0,0,0,4.8-.741,1.169,1.169,0,0,0,.645-1.044c0-5.808-6.959-10.232-16.365-10.574v-.033a1.169,1.169,0,1,0-2.338,0V12.2c-9.547.327-16.365,4.617-16.365,10.49a1.17,1.17,0,0,0,.436.91c1.1.888,3.039.961,5.269.961a11.6,11.6,0,0,0,3.986-.635,11.692,11.692,0,0,0,4.021.635,12.906,12.906,0,0,0,2.654-.273V43.73H26.014L12.109,29.825A3.008,3.008,0,0,0,7.974,29.8a2.889,2.889,0,0,0-.492.647,3.56,3.56,0,0,0-3.621.8,3.513,3.513,0,0,0,0,4.961l17.52,17.52-1.9,4.762a1.169,1.169,0,0,0,1.086,1.6h3.507a1.17,1.17,0,0,0,1.086-.735l2.044-5.11h7.391A1.169,1.169,0,0,0,33.42,55.42v3.507A1.169,1.169,0,0,0,34.589,60.1h4.676a1.169,1.169,0,0,0,1.169-1.169V55.42a1.169,1.169,0,0,0-1.169-1.169H63.021l2.044,5.11a1.17,1.17,0,0,0,1.086.735h3.507a1.169,1.169,0,0,0,1.086-1.6l-1.718-4.3A3.5,3.5,0,0,0,72,50.744ZM42.39,22.152a11,11,0,0,1-4.294-.338V15.185a14.746,14.746,0,0,1,5.536,6.738,8.625,8.625,0,0,1-1.242.23Zm9.663-.191a14.451,14.451,0,0,1-3.04.263,9.6,9.6,0,0,1-2.957-.421A16.137,16.137,0,0,0,41.5,14.879c5.763.958,9.971,3.689,10.554,7.082Zm-30.277.027c.488-3.554,4.868-6.327,11.008-7.194a16.187,16.187,0,0,0-4.636,6.973,9.353,9.353,0,0,1-3.052.457,16.277,16.277,0,0,1-3.321-.235Zm11.293.235a10.415,10.415,0,0,1-2.512-.292,14.6,14.6,0,0,1,5.2-6.509v6.468a10.142,10.142,0,0,1-2.689.333ZM9.632,31.45a.532.532,0,0,1,.4-.157.566.566,0,0,1,.412.172L24.7,45.726a1.169,1.169,0,0,0,.827.342H67.9a.584.584,0,0,1,0,1.169H24.8L9.445,31.883A.586.586,0,0,1,9.632,31.45ZM23.277,57.758h-.989l1.4-3.507h.989Zm14.819,0H35.758V56.589H38.1Zm28.846,0-1.4-3.507h.99l1.4,3.507Zm1.547-5.845H22.87L5.514,34.557a1.158,1.158,0,0,1,0-1.655,1.174,1.174,0,0,1,1.644,0l.245.247c.032.069.076.13.114.2.029.05.055.1.087.149a2.851,2.851,0,0,0,.36.45l15.29,15.29a1.169,1.169,0,0,0,.826.343H68.488a1.169,1.169,0,0,1,0,2.338Z" transform="translate(7190.165 7463)"/>
  </g>
</svg>
